com\org\restaurent\dto\res\EmpAttendanceResDto.class
com\org\restaurent\service\RTableWiseBillService.class
com\org\restaurent\service\SuperAdminService.class
com\org\restaurent\configuration\Configuration.class
com\org\restaurent\service\FixedProductMasterService.class
com\org\restaurent\controller\TableAllManagementController.class
com\org\restaurent\dto\dtoconfiguration\ResponseVO.class
com\org\restaurent\dao\impl\RTableWiseBillDaoImpl.class
com\org\restaurent\model\RawProductMaster.class
com\org\restaurent\service\SuperAdminPrivilegeService.class
com\org\restaurent\controller\RTableWiseBillController.class
com\org\restaurent\dto\res\ExpenceMasterResDto.class
com\org\restaurent\dto\dtoconfiguration\CommonClass.class
com\org\restaurent\dto\req\BranchMasterReqDto.class
com\org\restaurent\dao\EmpCredentialsDao.class
com\org\restaurent\model\RtableMaster.class
com\org\restaurent\service\impl\PrePaidSalaryMasterServiceImpl.class
com\org\restaurent\model\EmpCredentials.class
com\org\restaurent\service\UserPrivilegeService.class
com\org\restaurent\service\impl\SuperAdminPrivilegeServiceImpl.class
com\org\restaurent\controller\ExpenceMasterController.class
com\org\restaurent\dto\req\UserPrivilegeReqDto.class
com\org\restaurent\controller\LoginController.class
com\org\restaurent\swagger\SwaggerConfig.class
com\org\restaurent\service\impl\EmpCredentialsServiceImpl.class
com\org\restaurent\controller\PrePaidSalaryMasterController.class
com\org\restaurent\service\impl\UserPrivilegeServiceImpl.class
com\org\restaurent\dao\CommonDao.class
com\org\restaurent\dto\req\SuperAdminPrivilegeReqDto.class
com\org\restaurent\controller\RawProductMasterController.class
com\org\restaurent\dto\res\RawProductMasterResDto.class
com\org\restaurent\dao\impl\EmployeeMasterDaoImpl.class
com\org\restaurent\dto\res\SuperAdminPrivilegeResDto.class
com\org\restaurent\service\impl\BranchMasterServiceImpl.class
com\org\restaurent\controller\EmployeeMasterController.class
com\org\restaurent\service\LoginService.class
com\org\restaurent\model\UserPrivilege.class
com\org\restaurent\model\EmpAttendance.class
com\org\restaurent\service\BranchMasterService.class
com\org\restaurent\dao\impl\PrePaidSalaryMasterDaoImpl.class
com\org\restaurent\service\PrePaidSalaryMasterService.class
com\org\restaurent\dto\res\BranchMasterResDto.class
com\org\restaurent\dto\res\UserLoginResDto.class
com\org\restaurent\service\RTableMasterService.class
com\org\restaurent\model\ExpenceMaster.class
com\org\restaurent\dao\BranchMasterDao.class
com\org\restaurent\dao\UserPrivilegeDao.class
com\org\restaurent\model\SalaryMaster.class
com\org\restaurent\service\impl\RestaurentMasterServiceImpl.class
com\org\restaurent\service\impl\SuperAdminServiceImpl.class
com\org\restaurent\service\TableAllManagementService.class
com\org\restaurent\dao\SuperAdminDao.class
com\org\restaurent\dao\impl\RawProductMasterDaoImpl.class
com\org\restaurent\controller\UserPrivilegeController.class
com\org\restaurent\controller\RestaurentMasterController.class
com\org\restaurent\dto\req\RestaurentMasterReqDto.class
com\org\restaurent\dto\res\RTableMasterResDto.class
com\org\restaurent\service\DesignationMasterService.class
com\org\restaurent\dao\impl\SuperAdminPrivilegeDaoImpl.class
com\org\restaurent\dao\impl\ExpenceMasterDaoImpl.class
com\org\restaurent\controller\SuperAdminController.class
com\org\restaurent\service\EmpCredentialsService.class
com\org\restaurent\dto\req\EmployeeMasterReqDto.class
com\org\restaurent\dto\res\RTableWiseBillResDto.class
com\org\restaurent\service\RestaurentMasterService.class
com\org\restaurent\dao\LoginDao.class
com\org\restaurent\dao\PrePaidSalaryMasterDao.class
com\org\restaurent\dao\impl\ShiftMasterDaoImpl.class
com\org\restaurent\dao\impl\LoginDaoImpl.class
com\org\restaurent\dto\res\RestaurentMasterResDto.class
com\org\restaurent\dao\RTableWiseBillDao.class
com\org\restaurent\dao\impl\DesignationMasterDaoImpl.class
com\org\restaurent\dao\impl\SuperAdminDaoImpl.class
com\org\restaurent\dto\req\SuperAdminReqDto.class
com\org\restaurent\service\impl\RawProductMasterServiceImpl.class
com\org\restaurent\dto\res\EmployeeMasterResDto.class
com\org\restaurent\dao\impl\RestaurentMasterDaoImpl.class
com\org\restaurent\dto\res\ShiftMasterResDto.class
com\org\restaurent\dto\res\UserPrivilegeResDto.class
com\org\restaurent\controller\DesignationMasterController.class
com\org\restaurent\dao\SalaryMasterDao.class
com\org\restaurent\dto\req\UserLoginReqDto.class
com\org\restaurent\dto\req\PrePaidSalaryMasterReqDto.class
com\org\restaurent\dto\res\FixedProductMasterResDto.class
com\org\restaurent\service\impl\FixedProductMasterServiceImpl.class
com\org\restaurent\dto\res\PrePaidSalaryMasterResDto.class
com\org\restaurent\model\SuperAdmin.class
com\org\restaurent\dao\impl\RTableMasterDaoImpl.class
com\org\restaurent\dto\req\ExpenceMasterReqDto.class
com\org\restaurent\Application.class
com\org\restaurent\controller\FixedProductMasterController.class
com\org\restaurent\dao\RawProductMasterDao.class
com\org\restaurent\dto\req\SalaryMasterReqDto.class
com\org\restaurent\model\BranchMaster.class
com\org\restaurent\dao\impl\FixedProductMasterDaoImpl.class
com\org\restaurent\dto\req\RTableWiseBillReqDto.class
com\org\restaurent\dao\RestaurentMasterDao.class
com\org\restaurent\dto\req\FixedProductMasterReqDto.class
com\org\restaurent\dto\res\TableDashboardResDto.class
com\org\restaurent\model\SuperAdminPrivilege.class
com\org\restaurent\dao\impl\SalaryMasterDaoImpl.class
com\org\restaurent\dao\impl\BranchMasterDaoImpl.class
com\org\restaurent\model\RestaurentMaster.class
com\org\restaurent\dao\RTableMasterDao.class
com\org\restaurent\service\impl\ShiftMasterServiceImpl.class
com\org\restaurent\controller\EmpCredentialsController.class
com\org\restaurent\dao\ShiftMasterDao.class
com\org\restaurent\dao\impl\EmpCredentialsDaoImpl.class
com\org\restaurent\dao\DesignationMasterDao.class
com\org\restaurent\service\SalaryMasterService.class
com\org\restaurent\dto\req\EmpAttendanceReqDto.class
com\org\restaurent\dto\req\RTableMasterReqDto.class
com\org\restaurent\controller\RTableMasterController.class
com\org\restaurent\dto\req\RawProductMasterReqDto.class
com\org\restaurent\service\RawProductMasterService.class
com\org\restaurent\service\impl\LoginServiceImpl.class
com\org\restaurent\dao\ExpenceMasterDao.class
com\org\restaurent\dao\impl\TableAllManagementDaoImpl.class
com\org\restaurent\service\ExpenceMasterService.class
com\org\restaurent\controller\SuperAdminPrivilegeController.class
com\org\restaurent\dto\req\DesignationMasterReqDto.class
com\org\restaurent\service\impl\RTableMasterServiceImpl.class
com\org\restaurent\dao\impl\UserPrivilegeDaoImpl.class
com\org\restaurent\service\impl\RTableWiseBillServiceImpl.class
com\org\restaurent\service\ShiftMasterService.class
com\org\restaurent\service\impl\ExpenceMasterServiceImpl.class
com\org\restaurent\controller\ShiftMasterController.class
com\org\restaurent\dao\FixedProductMasterDao.class
com\org\restaurent\model\DesignationMaster.class
com\org\restaurent\dto\res\SalaryMasterResDto.class
com\org\restaurent\controller\BranchMasterController.class
com\org\restaurent\dto\res\EmpCredentialsResDto.class
com\org\restaurent\service\impl\DesignationMasterServiceImpl.class
com\org\restaurent\dao\TableAllManagementDao.class
com\org\restaurent\service\impl\EmployeeMasterServiceImpl.class
com\org\restaurent\dto\req\ShiftMasterReqDto.class
com\org\restaurent\dto\res\SuperAdminResDto.class
com\org\restaurent\dao\impl\CommonDaoImpl.class
com\org\restaurent\model\ShiftMaster.class
com\org\restaurent\dao\SuperAdminPrivilegeDao.class
com\org\restaurent\service\EmployeeMasterService.class
com\org\restaurent\service\impl\SalaryMasterServiceImpl.class
com\org\restaurent\controller\SalaryMasterController.class
com\org\restaurent\model\EmployeeMaster.class
com\org\restaurent\model\FixedProductMaster.class
com\org\restaurent\dto\res\DesignationMasterResDto.class
com\org\restaurent\model\RtableWiseBill.class
com\org\restaurent\dto\req\EmpCredentialsReqDto.class
com\org\restaurent\model\PrePaidSalaryMaster.class
com\org\restaurent\dao\EmployeeMasterDao.class
com\org\restaurent\service\impl\TableAllManagementServiceImpl.class
